{
  "result": {
    "id":"id del report", //String
    "data": "data in cui é emesso il report del mercato", //String
    "nome": "nome del mercato", //String
    "prodotti": [
      {
        "nome": "nome del prodotto", //String
        "produttore": "produttore del prodotto", //String
        "prezzo": "prezzo del prodotto", //String
        "quantita": "quantitá in ingresso del prodotto", //int
        "unita": "unitá del prodotto" //String
      }
    ],
    "totale": "totale degli introiti al mercato" //numeric
  }
}
